{
    "becas": [
        {
            "nombre": "Basico",
            "monto" : 4000
        },
        {
            "nombre": "Intermedio",
            "monto" : 8000
        },
        {
            "nombre": "Profesional",
            "monto" : 12000
        }
    ]
}