{
    "instTypes": [
        "Campo de fútbol",
        "Pista de tenis",
        "Cancha de baloncesto",
        "Campo de béisbol",
        "Pista de hielo",
        "Pista de atletismo",
        "Cancha Multipropósitos",
        "Cancha de Básquet techada",
        "Campo de Esgrima",
        "Cancha Multipropositos"
    ]
}